<svg width="203" height="192" viewBox="0 0 203 192" fill="none" xmlns="http://www.w3.org/2000/svg">
<g opacity="0.1">
<path d="M61.217 110.914L62.0576 140.559L80.173 140.982L80.1979 135.386C85.7688 141.012 92.3494 142.693 102.233 142.41C123.313 142.186 137.2 131.716 136.946 116.232C137.309 109.318 133.728 101.394 126.163 98.0615C118.945 93.4157 112.365 91.7345 103.153 89.3818C94.9209 88.6855 87.3654 85.3529 86.7237 82.3884C87.057 81.0702 89.3799 77.4591 97.6119 78.1604C106.177 77.5437 115.697 84.174 115.334 91.0929L133.783 90.1975L132.937 60.5525L116.145 60.4679L116.453 64.7505C111.862 60.7763 103.969 58.7618 95.3984 59.3736C67.4047 59.2344 60.4311 70.0727 61.0181 84.2387C60.655 91.1526 63.5697 101.707 69.8071 104.702C77.3676 108.034 86.5795 110.387 94.4733 112.402C104.018 113.436 111.912 115.456 111.241 118.082C111.554 122.364 108.585 123.006 101.671 122.643C93.4387 121.947 80.9539 115.958 76.6961 110.671L61.217 110.919V110.914ZM185.353 118.773C171.187 119.365 169.591 109.144 169.65 97.9471C169.362 88.0637 172.053 77.5387 184.901 76.6086C197.415 77.0065 199.345 85.905 198.957 98.4196C198.903 109.616 199.519 118.181 185.353 118.773ZM185.572 139.853C210.606 140.639 231.119 120.648 230.254 96.5991C230.363 74.2011 209.706 56.3146 184.677 55.5337C159.314 56.0659 138.797 76.0565 138.682 98.4544C139.553 122.504 160.215 140.39 185.572 139.858V139.853ZM44.5641 82.831L55.7605 82.8907L55.5367 61.8109L0.857422 61.8656L1.08128 82.9455L13.5959 83.3384L14.0734 119.902L1.22055 120.827L1.78261 140.589L56.4569 140.53L56.2331 119.45L45.0316 119.395L44.5541 82.831H44.5641Z" fill="white"/>
<path d="M113.007 15.3888L112.062 15.364L111.092 15.3391L110.162 15.2943L109.237 15.2048L108.332 15.1252L107.431 15.0108L106.546 14.8815L105.69 14.7273L104.815 14.5632L103.969 14.394L103.124 14.1951L102.273 13.9713L101.453 13.7424L100.657 13.4838L99.836 13.2301L99.0352 12.9367L98.2444 12.6482L97.4684 12.3348L96.6975 11.9866L95.9364 11.6484L95.1704 11.2803L94.3994 10.8824L93.6583 10.4994L92.9023 10.0716L92.1512 9.64386L91.4101 9.19122L90.6689 8.73361L89.9427 8.24119L89.2066 7.73881L88.4804 7.23146L87.7591 6.70919L87.023 6.1521L82.4121 12.1906L83.2229 12.8024L84.0436 13.4042L84.8743 14.0061L85.7099 14.5681L86.5555 15.1203L87.4209 15.6674L88.2765 16.1847L89.132 16.692L90.0124 17.1795L90.9127 17.6719L91.7981 18.0997L92.6984 18.5374L93.6185 18.9701L94.5437 19.3531L95.4788 19.7411L96.4338 20.1092L97.3789 20.4375L98.3339 20.7608L99.3088 21.0592L100.309 21.3378L101.274 21.5914L102.278 21.8302L103.303 22.0491L104.318 22.243L105.362 22.4171L106.422 22.5564L107.476 22.6808L108.555 22.8001L109.64 22.8698L110.754 22.9344L111.833 22.9842L112.977 22.9941L113.007 15.3888Z" fill="white"/>
<path d="M138.63 2.76367L137.968 3.44014L137.307 4.09173L136.62 4.71846L135.934 5.32529L135.223 5.92714L134.521 6.49915L133.805 7.05127L133.069 7.57354L132.338 8.09581L131.611 8.58326L130.85 9.06077L130.099 9.5134L129.333 9.94614L128.547 10.3441L127.771 10.732L126.956 11.1001L126.165 11.4483L125.349 11.7567L124.538 12.0651L123.708 12.3536L122.852 12.6072L122.007 12.846L121.151 13.0698L120.281 13.2688L119.42 13.4379L118.53 13.5722L117.644 13.7065L116.734 13.796L115.814 13.8856L114.879 13.9353L113.949 13.9801L112.999 13.985L112.964 21.5903L114.098 21.5754L115.242 21.5555L116.356 21.4809L117.465 21.3913L118.575 21.2521L119.674 21.1128L120.768 20.9138L121.862 20.6999L122.922 20.4662L123.971 20.2025L125.016 19.9091L126.046 19.5808L127.06 19.2525L128.08 18.8795L129.08 18.4616L130.074 18.0389L131.029 17.5862L132.004 17.1187L132.944 16.6014L133.885 16.094L134.815 15.5369L135.72 14.9749L136.625 14.378L137.516 13.7712L138.371 13.1196L139.237 12.463L140.092 11.7766L140.908 11.0802L141.729 10.349L142.529 9.60293L143.325 8.83694L144.101 8.05602L140.331 9.06574L138.63 2.76367Z" fill="white"/>
<path d="M139.56 197.855L143.056 198.636L147.13 197.412L151.119 196.054L155.024 194.502L158.854 192.826L162.589 190.991L166.225 189.011L169.767 186.877L173.214 184.619L176.566 182.226L179.789 179.705L182.908 177.068L185.937 174.298L188.827 171.418L191.608 168.419L194.259 165.32L196.8 162.116L199.193 158.799L201.471 155.402L203.62 151.9L205.396 148.692L196.611 148.766L195.06 151.303L192.961 154.471L190.727 157.516L188.394 160.5L185.922 163.37L183.356 166.145L180.67 168.807L177.889 171.363L174.994 173.815L172 176.148L168.916 178.357L165.728 180.441L162.45 182.395L159.097 184.231L155.636 185.927L152.114 187.494L148.488 188.901L144.792 190.185L141.032 191.299L144.529 192.09L139.56 197.855L141.092 199.183L143.056 198.636L139.56 197.855Z" fill="white"/>
<path d="M115.233 189.666H115.357L116.168 189.656L117.009 189.676L117.83 189.701L118.665 189.746L119.506 189.82L120.341 189.92L121.162 190.034L121.993 190.183L122.828 190.333L123.664 190.502L124.48 190.696L125.32 190.915L126.131 191.143L126.937 191.402L127.748 191.656L128.549 191.949L129.339 192.238L130.11 192.556L130.886 192.899L131.637 193.227L132.393 193.601L133.145 193.979L133.866 194.357L134.562 194.769L135.263 195.197L135.965 195.625L136.626 196.063L137.288 196.52L137.92 196.983L138.526 197.445L139.143 197.938L139.725 198.43L144.694 192.665L143.973 192.044L143.227 191.457L142.466 190.86L141.665 190.298L140.879 189.741L140.058 189.208L139.238 188.686L138.397 188.189L137.527 187.706L136.646 187.224L135.771 186.776L134.875 186.338L133.955 185.916L133.04 185.528L132.1 185.14L131.155 184.777L130.205 184.448L129.255 184.125L128.275 183.822L127.29 183.548L126.335 183.304L125.32 183.061L124.34 182.852L123.331 182.653L122.316 182.494L121.291 182.364L120.272 182.25L119.257 182.16L118.232 182.086L117.203 182.046H116.178L115.144 182.056H115.263L115.233 189.666Z" fill="white"/>
<path d="M87.7454 199.58L91.6798 198.416L92.1623 197.889L92.6696 197.357L93.1869 196.849L93.7092 196.372L94.2613 195.889L94.8084 195.437L95.4103 195.009L95.9973 194.576L96.609 194.203L97.2557 193.81L97.8923 193.442L98.5439 193.089L99.2403 192.761L99.9118 192.442L100.628 192.134L101.369 191.85L102.115 191.592L102.866 191.338L103.637 191.099L104.443 190.88L105.259 190.687L106.085 190.502L106.94 190.338L107.776 190.189L108.656 190.065L109.546 189.95L110.447 189.861L111.362 189.781L112.297 189.722L113.242 189.692L114.197 189.657H115.182L115.212 182.047L114.108 182.052L112.998 182.067L111.899 182.126L110.82 182.181L109.745 182.275L108.686 182.39L107.631 182.519L106.597 182.673L105.557 182.857L104.548 183.046L103.533 183.275L102.553 183.524L101.578 183.788L100.603 184.061L99.6482 184.384L98.7031 184.723L97.7929 185.091L96.8727 185.459L95.9575 185.877L95.087 186.314L94.2215 186.767L93.366 187.254L92.5403 187.757L91.7296 188.304L90.9287 188.856L90.1727 189.433L89.3918 190.045L88.6606 190.657L87.9344 191.328L87.243 192.01L86.5765 192.711L85.9199 193.447L89.8544 192.278L87.7454 199.58L90.0931 200.257L91.6798 198.416L87.7454 199.58Z" fill="white"/>
<path d="M26.3447 150.511L28.021 153.401L30.1797 156.833L32.4926 160.186L34.9249 163.424L37.4766 166.567L40.1426 169.611L42.943 172.546L45.8379 175.356L48.8421 178.067L51.9509 180.649L55.1542 183.126L58.4569 185.454L61.8542 187.677L65.326 189.746L68.8924 191.706L72.5234 193.512L76.244 195.183L80.0292 196.695L83.8741 198.068L87.7837 199.281L89.8927 191.98L86.2716 190.84L82.7102 189.577L79.2035 188.169L75.7665 186.623L72.3941 184.951L69.0963 183.151L65.8632 181.211L62.7296 179.171L59.6656 176.988L56.6862 174.705L53.8112 172.302L51.0258 169.805L48.3348 167.194L45.7583 164.468L43.2763 161.658L40.9037 158.748L38.6604 155.734L36.5365 152.65L35.1338 150.432L26.3447 150.511Z" fill="white"/>
<path d="M52.4859 25.8371L47.5964 25.9267L45.6714 27.6526L43.8062 29.4134L41.9609 31.2339L40.1802 33.0992L38.4293 35.0142L36.7232 36.9839L35.0719 38.9934L33.4752 41.0476L31.9133 43.1517L30.4112 45.2955L28.9538 47.494L27.576 49.7223L26.233 51.9905L24.9448 54.3034L24.8154 54.5521L33.5996 54.4476L34.0671 53.6518L35.3653 51.5925L36.6983 49.5681L38.0861 47.5835L39.5186 45.6337L41.0158 43.7336L42.5378 41.8783L44.1146 40.0628L45.7311 38.2871L47.3925 36.5462L49.0737 34.8749L50.8245 33.2385L52.5803 31.6567L47.6909 31.7413L52.4859 25.8371L50.0038 23.8276L47.5964 25.9267L52.4859 25.8371Z" fill="white"/>
<path d="M113.511 45.1673H113.461L111.183 45.1822L108.905 45.1524L106.657 45.0827L104.408 44.9484L102.195 44.7843L99.9864 44.5555L97.8078 44.2819L95.6342 43.9586L93.5003 43.6104L91.3764 43.2125L89.2724 42.7549L87.1983 42.2724L85.139 41.7452L83.1246 41.1881L81.12 40.5862L79.1503 39.9496L77.2303 39.2731L75.3203 38.5668L73.4501 37.8306L71.6047 37.0447L69.8042 36.2539L68.0284 35.4182L66.2826 34.5428L64.6014 33.6525L62.9251 32.7273L61.3135 31.7772L59.7218 30.8073L58.1899 29.8075L56.6976 28.7729L55.2353 27.7433L53.8277 26.6839L52.4697 25.6045L47.6748 31.5086L49.1869 32.7124L50.7537 33.8862L52.3404 35.0352L53.9918 36.1395L55.6879 37.2337L57.4089 38.3032L59.1896 39.3328L60.9803 40.3425L62.8356 41.3124L64.7157 42.2525L66.6258 43.1578L68.5905 44.0432L70.5801 44.8689L72.6045 45.6747L74.6538 46.4456L76.7578 47.1718L78.8668 47.8483L81.0106 48.5098L83.1892 49.1216L85.3778 49.6787L87.6161 50.201L89.8693 50.6636L92.1374 51.1013L94.4553 51.4893L96.7782 51.8225L99.1309 52.1061L101.494 52.3398L103.891 52.5338L106.284 52.6681L108.721 52.7577L111.148 52.7875L113.61 52.7626H113.57L113.511 45.1673Z" fill="white"/>
<path d="M175.751 23.8093L174.438 24.9533L173.075 26.0874L171.667 27.2066L170.21 28.2959L168.703 29.3553L167.146 30.3999L165.534 31.4195L163.878 32.4193L162.207 33.3694L160.456 34.3045L158.675 35.2147L156.864 36.1051L154.999 36.9357L153.114 37.7515L151.174 38.5224L149.214 39.2735L147.215 39.9798L145.166 40.6463L143.101 41.283L140.992 41.8849L138.849 42.432L136.685 42.9344L134.496 43.4119L132.273 43.8347L130.025 44.2127L127.747 44.5509L125.449 44.8444L123.126 45.0831L120.783 45.2821L118.41 45.4313L116.018 45.5208L113.605 45.5756L113.665 53.1659L116.227 53.136L118.783 53.0216L121.31 52.8774L123.827 52.6685L126.314 52.3999L128.771 52.0965L131.203 51.7334L133.616 51.3255L136.003 50.8629L138.351 50.3705L140.684 49.8084L142.967 49.2066L145.23 48.5799L147.469 47.8984L149.647 47.1772L151.811 46.4162L153.945 45.6203L156.029 44.7698L158.083 43.8943L160.088 42.9692L162.067 42.039L163.987 41.0442L165.877 40.0246L167.738 38.9651L169.533 37.8808L171.284 36.7616L172.995 35.6176L174.661 34.4437L176.288 33.24L177.865 32.0115L179.382 30.758L180.849 29.4697L175.955 29.614L175.751 23.8093Z" fill="white"/>
<path d="M115.737 159.844L118.03 159.824L120.318 159.839L122.596 159.908L124.849 160.008L127.088 160.162L129.306 160.351L131.5 160.575L133.673 160.863L135.832 161.192L137.971 161.55L140.07 161.948L142.159 162.405L144.208 162.888L146.258 163.42L148.257 163.992L150.222 164.574L152.157 165.225L154.057 165.902L155.922 166.633L157.757 167.389L159.563 168.18L161.324 169.011L163.04 169.881L164.711 170.771L166.343 171.717L167.954 172.696L169.496 173.711L171.008 174.746L172.466 175.835L173.883 176.929L175.241 178.073L176.559 179.252L181.707 173.651L180.21 172.318L178.648 171.02L177.057 169.757L175.41 168.568L173.724 167.389L171.988 166.27L170.227 165.181L168.402 164.136L166.542 163.126L164.637 162.176L162.712 161.266L160.747 160.386L158.747 159.555L156.703 158.774L154.634 158.023L152.535 157.332L150.401 156.665L148.232 156.048L146.069 155.496L143.85 154.964L141.607 154.502L139.329 154.064L137.051 153.666L134.738 153.333L132.405 153.039L130.042 152.771L127.675 152.572L125.287 152.407L122.885 152.298L120.477 152.238L118.045 152.208L115.593 152.243L115.737 159.844Z" fill="white"/>
<path d="M50.5322 179.332L55.4465 179.372L56.7149 178.347L58.048 177.332L59.4307 176.357L60.8384 175.387L62.3256 174.432L63.8526 173.507L65.4095 172.597L67.031 171.717L68.6874 170.861L70.3736 170.03L72.1195 169.225L73.8952 168.434L75.7157 167.688L77.571 166.966L79.4511 166.27L81.3761 165.618L83.3408 164.977L85.3304 164.385L87.33 163.828L89.3843 163.291L91.4634 162.798L93.5723 162.336L95.6913 161.903L97.8401 161.51L100.024 161.162L102.202 160.853L104.431 160.58L106.659 160.336L108.917 160.147L111.175 160.003L113.473 159.888L115.766 159.809L115.622 152.208L113.175 152.278L110.758 152.397L108.335 152.562L105.948 152.781L103.57 153.019L101.212 153.323L98.8697 153.651L96.5617 154.029L94.2737 154.442L91.9956 154.899L89.7573 155.387L87.5538 155.914L85.3652 156.471L83.1966 157.088L81.0727 157.735L78.9836 158.406L76.9194 159.117L74.8751 159.859L72.8805 160.639L70.9257 161.445L69.0007 162.286L67.1156 163.151L65.2603 164.057L63.4547 165.002L61.6939 165.967L59.963 166.956L58.2867 167.991L56.6552 169.031L55.0636 170.115L53.5266 171.229L52.0394 172.368L50.582 173.527L55.4963 173.567L50.5322 179.332L52.9595 181.431L55.4465 179.372L50.5322 179.332Z" fill="white"/>
<path d="M26.7842 150.506L26.8488 150.631L28.2167 152.993L29.6243 155.306L31.1066 157.574L32.6336 159.798L34.2154 161.981L35.8518 164.115L37.5281 166.214L39.254 168.263L41.0248 170.258L42.8502 172.223L44.7105 174.123L46.6106 175.993L48.5753 177.799L50.555 179.564L55.519 173.8L53.6637 172.158L51.8631 170.477L50.0824 168.741L48.3465 166.96L46.6504 165.155L45.0089 163.289L43.3924 161.384L41.8306 159.44L40.3135 157.45L38.8511 155.421L37.4335 153.351L36.0657 151.242L35.5683 150.432L26.7842 150.506Z" fill="white"/>
<path d="M95.5127 10.891L91.9414 10.4135L88.8823 11.642L85.8781 13.0298L82.9483 14.5518L80.0734 16.2082L77.2581 17.9939L74.5174 19.9287L71.8315 21.9731L69.235 24.1467L66.7032 26.4248L64.261 28.8322L61.8884 31.3391L59.6103 33.9555L57.4218 36.6613L55.3078 39.4766L53.2933 42.3864L51.3783 45.3708L49.5529 48.4646L47.8319 51.6331L46.2153 54.8761L46.1357 55.0502L54.686 54.9408L56.1782 52.2051L57.8545 49.36L59.6252 46.5845L61.4806 43.9085L63.4105 41.3269L65.4299 38.82L67.5289 36.4325L69.6876 34.1445L71.921 31.9609L74.214 29.8817L76.5816 27.912L78.999 26.0518L81.481 24.3258L84.0078 22.7092L86.5893 21.217L89.2355 19.8442L91.8916 18.6156L94.6074 17.5163L91.0361 17.0339L95.5127 10.891L93.8563 9.68726L91.9414 10.4135L95.5127 10.891Z" fill="white"/>
<path d="M113.283 14.1015L112.467 14.1164L111.875 14.196L111.283 14.2507L110.696 14.2905L110.109 14.3203L109.552 14.3352L108.985 14.3502L108.408 14.3352L107.851 14.3054L107.304 14.2756L106.737 14.2208L106.195 14.1612L105.658 14.0915L105.125 13.9821L104.603 13.8876L104.061 13.7782L103.529 13.6488L103.007 13.5096L102.479 13.3504L101.972 13.1813L101.45 13.0171L100.952 12.8182L100.44 12.6093L99.9177 12.3904L99.4253 12.1566L98.9179 11.9129L98.4056 11.6443L97.9132 11.3658L97.4357 11.0822L96.9333 10.7788L96.4359 10.4605L95.9434 10.1272L95.461 9.77905L90.9844 15.922L91.6111 16.3646L92.2378 16.7924L92.8695 17.2052L93.4962 17.6032L94.1677 17.9911L94.8193 18.3493L95.4709 18.6825L96.1374 19.0307L96.8189 19.3341L97.4804 19.6276L98.1618 19.9111L98.8582 20.1598L99.5347 20.4284L100.251 20.6473L100.942 20.8512L101.644 21.0352L102.35 21.2093L103.056 21.3635L103.787 21.5127L104.514 21.6023L105.245 21.7167L105.976 21.7963L106.697 21.8559L107.443 21.9156L108.194 21.9306L108.926 21.9455H109.667L110.438 21.9306L111.184 21.8808L111.935 21.8211L112.686 21.7415L113.452 21.657L112.636 21.6719L113.283 14.1015Z" fill="white"/>
<path d="M135.397 8.58257L132.223 8.90588L131.642 9.24909L131.045 9.59727L130.443 9.9355L129.886 10.2439L129.324 10.5523L128.742 10.8507L128.165 11.1193L127.613 11.4078L127.036 11.6714L126.469 11.9201L125.916 12.1539L125.359 12.3976L124.797 12.6165L124.235 12.8155L123.663 13.0194L123.101 13.1786L122.554 13.3527L121.982 13.5168L121.415 13.6511L120.838 13.7953L120.241 13.8948L119.644 13.9943L119.082 14.0789L118.49 14.1535L117.883 14.2132L117.272 14.2629L116.65 14.2878L116.028 14.3226L115.382 14.3077L114.725 14.2977L114.053 14.2679L113.382 14.2231L112.735 21.7936L113.596 21.8632L114.441 21.903L115.277 21.9328L116.088 21.9179H116.909L117.724 21.8731L118.525 21.8184L119.316 21.7388L120.102 21.6443L120.893 21.525L121.654 21.3857L122.39 21.2166L123.141 21.0673L123.877 20.8783L124.608 20.6943L125.349 20.4854L126.061 20.2317L126.762 20.0029L127.463 19.7393L128.155 19.4707L128.851 19.2071L129.538 18.9086L130.209 18.5953L130.866 18.2869L131.547 17.9785L132.199 17.6253L132.855 17.2921L133.517 16.9389L134.188 16.5708L134.82 16.2077L135.457 15.8446L136.113 15.4666L132.94 15.7899L135.397 8.58257L133.741 8.02051L132.223 8.90588L135.397 8.58257Z" fill="white"/>
<path d="M183.258 53.4156L182.771 52.4208L181.095 49.2374L179.279 46.1336L177.389 43.1194L175.394 40.2146L173.295 37.3993L171.107 34.6785L168.829 32.0473L166.456 29.5404L164.029 27.1429L161.497 24.8399L158.876 22.6613L156.18 20.5871L153.424 18.6473L150.584 16.8318L147.669 15.1356L144.705 13.5638L141.676 12.1313L138.562 10.8232L135.418 9.66919L132.956 16.8765L135.806 17.9211L138.577 19.08L141.312 20.3782L144.003 21.7809L146.62 23.3079L149.186 24.9742L151.698 26.7251L154.135 28.6003L156.498 30.57L158.811 32.664L161.049 34.8576L163.198 37.1556L165.287 39.5481L167.287 42.0351L169.197 44.6265L171.037 47.3025L172.788 50.0681L174.434 52.9132L174.763 53.525L183.258 53.4156Z" fill="white"/>
<path d="M132.077 191.855L134.947 192.158L138.23 191.114L141.438 189.905L144.582 188.562L147.681 187.06L150.68 185.403L153.644 183.603L156.509 181.678L159.29 179.619L161.981 177.425L164.612 175.087L167.124 172.65L169.576 170.093L171.904 167.403L174.147 164.617L176.286 161.712L178.325 158.703L180.25 155.589L182.066 152.386L183.762 149.083L183.931 148.71L175.366 148.785L173.71 151.734L171.934 154.585L170.074 157.335L168.119 159.976L166.079 162.538L163.941 164.975L161.737 167.313L159.429 169.531L157.077 171.625L154.624 173.605L152.103 175.48L149.531 177.221L146.905 178.823L144.184 180.295L141.433 181.643L138.603 182.862L135.738 183.926L132.818 184.856L135.693 185.16L132.077 191.855Z" fill="white"/>
<path d="M114.996 189.912L115.703 189.872L116.285 189.797L116.896 189.748L117.468 189.698L118.06 189.678L118.637 189.648H119.791L120.363 189.663L120.911 189.688L121.473 189.723L122.04 189.777L122.572 189.827L123.099 189.897L123.641 190.011L124.193 190.096L124.696 190.185L125.203 190.29L125.73 190.409L126.248 190.538L126.76 190.678L127.252 190.822L127.715 190.971L128.202 191.14L128.68 191.309L129.138 191.454L129.59 191.633L130.053 191.832L130.505 192.036L130.918 192.225L131.336 192.414L132.152 192.841L135.773 186.146L135.246 185.868L134.708 185.594L134.161 185.321L133.579 185.052L133.017 184.818L132.455 184.594L131.863 184.351L131.261 184.102L130.67 183.903L130.068 183.704L129.426 183.51L128.784 183.326L128.163 183.152L127.531 182.998L126.889 182.849L126.208 182.699L125.526 182.565L124.865 182.456L124.193 182.376L123.482 182.291L122.771 182.197L122.084 182.142L121.373 182.092L120.647 182.053L119.926 182.033L119.199 182.028L118.463 182.043L117.727 182.063L116.981 182.112L116.215 182.172L115.474 182.252L114.713 182.341L115.409 182.301L114.996 189.912Z" fill="white"/>
<path d="M47.6836 150.488L47.7582 150.637L49.509 153.856L51.3594 157.014L53.3142 160.073L55.3635 163.028L57.5172 165.888L59.7555 168.638L62.0784 171.289L64.5057 173.826L67.0176 176.249L69.609 178.552L72.29 180.73L75.0357 182.769L77.8659 184.699L80.7558 186.49L83.7153 188.126L86.7445 189.624L89.8383 190.982L93.0018 192.185L96.2001 193.215L98.3688 185.938L95.5137 184.993L92.7033 183.943L89.9577 182.73L87.2469 181.382L84.5907 179.909L81.9794 178.308L79.4376 176.587L76.9506 174.731L74.5383 172.747L72.1905 170.663L69.9025 168.469L67.699 166.146L65.5502 163.734L63.5009 161.212L61.5262 158.581L59.6411 155.85L57.8355 153.05L56.2936 150.414L47.6836 150.488Z" fill="white"/>
<path d="M103.025 13.259L100.135 13.6769L98.2447 14.8905L96.4043 16.2434L94.5938 17.7157L92.8429 19.3124L91.1269 21.0434L89.4606 22.8788L87.8391 24.8385L86.2772 26.9127L84.7602 29.0863L83.2878 31.3694L81.8802 33.747L80.5223 36.224L79.1992 38.7956L77.9358 41.4667L76.747 44.2173L75.608 47.0525L74.5236 49.9722L73.5139 52.9666L73.1807 54.036L81.2236 53.9365L81.7111 52.5139L82.7109 49.7832L83.7703 47.147L84.8795 44.5854L86.0285 42.1381L87.2273 39.7805L88.4807 37.5173L89.764 35.3635L91.0821 33.3142L92.44 31.3794L93.8228 29.5539L95.2205 27.8478L96.6481 26.2611L98.1054 24.8087L99.5678 23.4657L101.04 22.2471L102.532 21.1727L104.029 20.2326L101.14 20.6454L103.025 13.259Z" fill="white"/>
<path d="M114.045 14.6319L112.837 14.5374L112.474 14.5622H112.135L111.817 14.5771H111.514L111.19 14.5871L110.872 14.5672L110.593 14.5771L110.3 14.5622L110.031 14.5672L109.768 14.5324L109.464 14.5125L109.191 14.5025L108.927 14.4826L108.663 14.408L108.415 14.3881L108.126 14.3483L107.833 14.3036L107.579 14.2638L107.296 14.214L107.052 14.1792L106.455 14.0499L105.858 13.9206L105.241 13.7714L104.59 13.6172L103.908 13.4431L103.182 13.259L101.297 20.6454L102.023 20.8344L102.734 21.0135L104.142 21.3517L104.828 21.5059L105.51 21.6502L105.898 21.7298L106.246 21.7944L106.614 21.8641L106.962 21.9188L107.306 21.9685L107.693 22.0332H108.072L108.454 22.0829L108.842 22.1277L109.196 22.1575L109.594 22.1675L110.001 22.2023L110.399 22.2073L110.822 22.2321L111.21 22.2073L111.618 22.2172L112.056 22.1973L112.498 22.1824L112.931 22.1376L113.364 22.1078L112.155 22.0183L114.045 14.6319Z" fill="white"/>
<path d="M127.515 13.6389L125.605 13.2957L125.147 13.3106L124.659 13.3603L124.197 13.415L123.759 13.4548L123.302 13.5245L122.869 13.5991L122.436 13.6538L121.993 13.7284L121.153 13.8776L120.337 14.0219L119.551 14.1512L118.75 14.2606L118.402 14.3203L118.039 14.3551L117.686 14.4049L117.343 14.4297L117.019 14.4546L116.676 14.4795L116.323 14.5093L116.039 14.5242L115.771 14.5043L115.453 14.5143L115.159 14.4944L114.93 14.4695L114.687 14.4198L114.413 14.3899L114.189 14.3651L113.965 14.3104L112.075 21.6968L112.592 21.8211L113.125 21.9305L113.607 22.0151L114.129 22.0698L114.667 22.0997L115.164 22.1196L115.627 22.1494L116.149 22.1345L116.656 22.1196L117.094 22.1096L117.557 22.0847L118.039 22.045L118.512 21.9853L118.964 21.9305L119.422 21.8709L119.894 21.8062L120.735 21.6669L121.59 21.5227L122.426 21.3834L123.237 21.2591L123.61 21.2043L123.993 21.1347L124.386 21.0899L124.739 21.0402L125.465 20.9357L125.789 20.9159L126.132 20.8661L124.227 20.513L127.515 13.6389Z" fill="white"/>
<path d="M156.336 52.3529L155.774 50.7562L154.645 47.7917L153.461 44.9118L152.212 42.1214L150.909 39.4304L149.546 36.834L148.149 34.342L146.681 31.9495L145.164 29.6664L143.617 27.4779L142.001 25.4137L140.344 23.4589L138.638 21.6284L136.887 19.9273L135.092 18.3406L133.256 16.8832L131.361 15.5502L129.436 14.3763L127.462 13.3318L124.174 20.2059L125.691 21.0017L127.213 21.9269L128.72 22.9764L130.227 24.1602L131.719 25.4833L133.197 26.9357L134.659 28.5174L136.106 30.2136L137.514 32.0341L138.902 33.964L140.265 36.0232L141.573 38.1919L142.876 40.47L144.105 42.8525L145.313 45.3346L146.462 47.9161L147.572 50.5871L148.288 52.4574L156.336 52.3529Z" fill="white"/>
<path d="M125.345 190.262L127.748 190.068L129.772 189.132L131.757 188.018L133.672 186.75L135.527 185.327L137.343 183.746L139.103 182.044L140.81 180.184L142.446 178.2L144.053 176.115L145.585 173.887L147.072 171.539L148.514 169.087L149.897 166.511L151.235 163.83L152.493 161.064L153.712 158.174L154.876 155.205L155.985 152.141L156.577 150.34L148.514 150.41L147.748 152.554L146.669 155.334L145.54 158L144.346 160.577L143.142 163.029L141.884 165.362L140.586 167.58L139.253 169.684L137.88 171.649L136.497 173.494L135.074 175.19L133.632 176.747L132.19 178.16L130.732 179.433L129.26 180.562L127.783 181.547L126.305 182.383L124.833 183.054L127.23 182.87L125.345 190.262Z" fill="white"/>
<path d="M114.273 190.122L116.019 190.142L116.268 190.092L116.497 190.053L116.741 190.003L117.009 189.983L117.263 189.923L117.561 189.868L117.84 189.859L118.113 189.804L118.382 189.784L118.68 189.764L118.989 189.719L119.277 189.709L119.586 189.67L119.874 189.675L120.197 189.645L120.516 189.66L120.824 189.64L121.123 189.66H121.456L121.769 189.655L122.073 189.679L122.386 189.694L122.719 189.744L123.033 189.764L123.356 189.789L123.649 189.849L123.968 189.893L124.281 189.933L124.56 189.978L124.843 190.033L125.176 190.107L125.475 190.177L127.36 182.785L126.922 182.681L126.5 182.586L126.042 182.487L125.569 182.393L125.127 182.318L124.699 182.248L124.241 182.213L123.804 182.154L123.371 182.109L122.943 182.094L122.515 182.059L122.073 182.054L121.645 182.024L121.232 182.01L120.804 182.024L120.386 182.01L119.984 182.039H119.586L119.168 182.069L118.765 182.084L118.377 182.124L117.989 182.149L117.616 182.184L117.223 182.238L116.835 182.263L116.467 182.343L116.139 182.388L115.776 182.422L115.432 182.512L115.084 182.562L114.731 182.636L114.418 182.706L116.164 182.731L114.273 190.122Z" fill="white"/>
<path d="M75.3604 150.47L75.7036 151.465L76.8476 154.499L78.0414 157.448L79.3097 160.303L80.6378 163.069L82.0156 165.725L83.4531 168.297L84.9552 170.774L86.5071 173.122L88.1187 175.38L89.78 177.504L91.506 179.533L93.2768 181.433L95.1022 183.194L96.9923 184.835L98.9322 186.347L100.927 187.705L102.966 188.924L105.06 189.998L108.268 183.099L106.632 182.284L105.015 181.309L103.409 180.205L101.817 178.971L100.25 177.603L98.6934 176.086L97.1615 174.465L95.6692 172.709L94.1969 170.819L92.7694 168.829L91.3667 166.695L90.0188 164.477L88.7006 162.129L87.4323 159.672L86.2037 157.12L85.0348 154.479L83.9107 151.728L83.4133 150.395L75.3604 150.47Z" fill="white"/>
<path d="M117.734 185.917L117.49 150.448L109.895 150.512L110.143 185.972L117.734 185.917ZM116.823 54.111L116.585 20.238L108.989 20.2977L109.223 54.2105L116.823 54.111Z" fill="white"/>
<path d="M112.409 0.913574L112.469 0.918548L107.291 1.09264L102.198 1.53035L97.1689 2.22174L92.2048 3.16183L87.3253 4.36056L82.5503 5.77816L77.8797 7.4345L73.3036 9.32463L68.8369 11.4137L64.4946 13.7117L60.2766 16.2136L56.193 18.9195L52.2436 21.7945L48.4335 24.8734L44.7826 28.1214L41.2958 31.5236L37.9533 35.1L34.7898 38.8305L31.8054 42.7052L29.01 46.7192L26.3887 50.8676L23.9813 55.1303L23.9365 55.2099L32.7256 55.1054L32.9246 54.7423L35.3469 50.9123L37.9483 47.1868L40.7039 43.5956L43.6386 40.1486L46.7225 36.8409L49.9655 33.6774L53.3478 30.6731L56.8744 27.8379L60.5253 25.1569L64.3155 22.655L68.2102 20.347L72.2341 18.2082L76.3526 16.2733L80.5756 14.5473L84.9079 13.0104L89.3249 11.6873L93.8114 10.598L98.3875 9.71757L103.028 9.07593L107.754 8.66806L112.529 8.51386L112.583 8.51884L112.409 0.913574Z" fill="white"/>
<path d="M203.603 52.9467L203.563 52.8721L201.051 48.6094L198.35 44.471L195.44 40.4868L192.346 36.6568L189.069 32.981L185.636 29.4644L182.02 26.1418L178.25 22.9683L174.326 19.9889L170.257 17.1985L166.044 14.602L161.687 12.2145L157.215 10.026L152.609 8.05625L147.914 6.32032L143.084 4.80325L138.179 3.5299L133.161 2.50028L128.057 1.70942L122.874 1.18217L117.632 0.918548L112.305 0.913574L112.479 8.51884L117.408 8.51386L122.283 8.76754L127.082 9.26494L131.798 9.99114L136.439 10.9561L141 12.1399L145.451 13.5326L149.819 15.1492L154.061 16.9597L158.205 18.9692L162.219 21.1827L166.113 23.5752L169.889 26.1567L173.515 28.9123L177.007 31.832L180.344 34.9358L183.537 38.1639L186.547 41.5711L189.402 45.1176L192.078 48.7934L194.59 52.6085L194.853 53.0561L203.603 52.9467Z" fill="white"/>
<path d="M115.781 203.247L115.716 203.237L120.894 203.068L125.987 202.63L131.021 201.929L135.98 200.998L140.87 199.8L145.635 198.377L150.31 196.726L154.881 194.836L159.353 192.742L163.69 190.448L167.908 187.947L171.997 185.236L175.941 182.361L179.751 179.282L183.402 176.039L186.894 172.632L190.237 169.055L193.395 165.325L196.379 161.45L199.175 157.441L201.801 153.283L204.204 149.025L204.373 148.692L195.623 148.766L195.26 149.418L192.843 153.243L190.237 156.968L187.481 160.555L184.546 164.012L181.462 167.319L178.224 170.478L174.842 173.482L171.315 176.322L167.659 178.998L163.869 181.505L159.975 183.818L155.956 185.947L151.832 187.887L147.609 189.608L143.282 191.145L138.86 192.463L134.378 193.557L129.802 194.433L125.157 195.074L120.431 195.487L115.661 195.641H115.602L115.781 203.247Z" fill="white"/>
<path d="M24.5957 150.511L25.2125 151.695L27.7293 155.958L30.4252 160.101L33.3251 164.065L36.3741 167.895L39.6371 171.566L43.0443 175.063L46.6157 178.395L50.3511 181.559L54.2458 184.518L58.2847 187.309L62.4529 189.895L66.7653 192.273L71.2072 194.437L75.7584 196.391L80.4339 198.132L85.2239 199.644L90.0984 200.913L95.0874 201.932L100.166 202.718L105.334 203.241L110.586 203.504L115.894 203.509L115.715 195.904H110.775L105.916 195.65L101.146 195.163L96.4453 194.442L91.8393 193.487L87.308 192.308L82.8961 190.93L78.5737 189.338L74.3507 187.528L70.2621 185.518L66.2878 183.32L62.428 180.932L58.7075 178.376L55.1212 175.62L51.6643 172.71L48.3615 169.636L45.198 166.388L42.2037 162.996L39.3536 159.454L36.6975 155.769L34.1906 151.959L33.2952 150.432L24.5957 150.511Z" fill="white"/>
</g>
</svg>
